Jet pT: 0.0TRK_BIAS_QOVERP_SAGITTA_WM: -4.37099408326e-05
TRK_EFF_LOOSE_GLOBAL: -0.00442066447057
TRK_EFF_LOOSE_IBL: -0.00280935710624
TRK_EFF_LOOSE_PHYSMODEL: -0.00280140984427
TRK_EFF_LOOSE_PP0: -0.003264337854
TRK_EFF_LOOSE_TIDE: -0.00287889564848
TRK_FAKE_RATE_LOOSE: -7.15253577261e-05
TRK_RES_D0_DEAD: -0.000178813394315
TRK_RES_Z0_DEAD: 0.00114569627225
TRK_RES_Z0_MEAS: 0.00160733373335
TRK_RES_D0_MEAS: 0.00144441486297
TRK_BIAS_D0_WM: 6.35780957565e-05
TRK_FAKE_RATE_LOOSE_TIDE: -0.02518015889
Jet pT: 85.0TRK_BIAS_QOVERP_SAGITTA_WM: 0.000126893643605
TRK_EFF_LOOSE_GLOBAL: -0.0035237388724
TRK_EFF_LOOSE_IBL: -0.00279654068405
TRK_EFF_LOOSE_PHYSMODEL: -0.00296735905045
TRK_EFF_LOOSE_PP0: -0.00384585350617
TRK_EFF_LOOSE_TIDE: -0.00513919256598
TRK_FAKE_RATE_LOOSE: -0.000102491019834
TRK_RES_D0_DEAD: 0.000209862564423
TRK_RES_Z0_DEAD: -0.000427926881236
TRK_RES_Z0_MEAS: 0.00112740121818
TRK_RES_D0_MEAS: 0.00150808214899
TRK_BIAS_D0_WM: -4.88052475395e-06
TRK_FAKE_RATE_LOOSE_TIDE: 0.00170154074183
Jet pT: 140.0TRK_BIAS_QOVERP_SAGITTA_WM: -0.000242107488039
TRK_EFF_LOOSE_GLOBAL: -0.00371231481659
TRK_EFF_LOOSE_IBL: -0.0031051246085
TRK_EFF_LOOSE_PHYSMODEL: -0.0031512403205
TRK_EFF_LOOSE_PP0: -0.00386603385662
TRK_EFF_LOOSE_TIDE: -0.00684049728109
TRK_FAKE_RATE_LOOSE: -0.000165247968026
TRK_RES_D0_DEAD: 0.0
TRK_RES_Z0_DEAD: -4.19414596043e-05
TRK_RES_Z0_MEAS: 0.00159483504026
TRK_RES_D0_MEAS: 0.00102607459216
TRK_BIAS_D0_WM: -0.000453471168073
TRK_FAKE_RATE_LOOSE_TIDE: 0.00818344876147
Jet pT: 250.0TRK_BIAS_QOVERP_SAGITTA_WM: 0.000503444104045
TRK_EFF_LOOSE_GLOBAL: -0.00390657014069
TRK_EFF_LOOSE_IBL: -0.0033953207017
TRK_EFF_LOOSE_PHYSMODEL: -0.00377778211407
TRK_EFF_LOOSE_PP0: -0.00470271430523
TRK_EFF_LOOSE_TIDE: -0.0075633695631
TRK_FAKE_RATE_LOOSE: -0.000152204031456
TRK_RES_D0_DEAD: 0.000390266747322
TRK_RES_Z0_DEAD: -0.000642287440681
TRK_RES_Z0_MEAS: -0.00069077214276
TRK_RES_D0_MEAS: 0.000464417429313
TRK_BIAS_D0_WM: -0.000456612094367
TRK_FAKE_RATE_LOOSE_TIDE: 0.0136934226571
Jet pT: 400.0TRK_BIAS_QOVERP_SAGITTA_WM: 0.00100788308556
TRK_EFF_LOOSE_GLOBAL: -0.0043698930924
TRK_EFF_LOOSE_IBL: -0.00388034987941
TRK_EFF_LOOSE_PHYSMODEL: -0.00378676073575
TRK_EFF_LOOSE_PP0: -0.00519779705554
TRK_EFF_LOOSE_TIDE: -0.00878298117418
TRK_FAKE_RATE_LOOSE: -0.000129584968144
TRK_RES_D0_DEAD: 0.0011518663835
TRK_RES_Z0_DEAD: 0.00304368616384
TRK_RES_Z0_MEAS: -0.000655124005615
TRK_RES_D0_MEAS: 0.00218854612865
TRK_BIAS_D0_WM: 0.00140383715489
TRK_FAKE_RATE_LOOSE_TIDE: 0.0144207965743
Jet pT: 500.0TRK_BIAS_QOVERP_SAGITTA_WM: 7.32755813197e-05
TRK_EFF_LOOSE_GLOBAL: -0.00495831433596
TRK_EFF_LOOSE_IBL: -0.0042581254478
TRK_EFF_LOOSE_PHYSMODEL: -0.00461636162314
TRK_EFF_LOOSE_PP0: -0.00550381033023
TRK_EFF_LOOSE_TIDE: -0.00924900670879
TRK_FAKE_RATE_LOOSE: -8.14173125774e-05
TRK_RES_D0_DEAD: 0.0
TRK_RES_Z0_DEAD: -0.00344155718211
TRK_RES_Z0_MEAS: -0.00229596821468
TRK_RES_D0_MEAS: 0.000366377906598
TRK_BIAS_D0_WM: -0.000488503875464
TRK_FAKE_RATE_LOOSE_TIDE: 0.0150631645058
Jet pT: 600.0TRK_BIAS_QOVERP_SAGITTA_WM: -0.0005577555915
TRK_EFF_LOOSE_GLOBAL: -0.00441556509937
TRK_EFF_LOOSE_IBL: -0.00367189097737
TRK_EFF_LOOSE_PHYSMODEL: -0.0042389424954
TRK_EFF_LOOSE_PP0: -0.00511275958875
TRK_EFF_LOOSE_TIDE: -0.0098908658226
TRK_FAKE_RATE_LOOSE: -8.36633387251e-05
TRK_RES_D0_DEAD: -0.000176622603975
TRK_RES_Z0_DEAD: -0.000781561983013
TRK_RES_Z0_MEAS: -0.0043876773198
TRK_RES_D0_MEAS: -0.00207299161507
TRK_BIAS_D0_WM: 5.57755591499e-05
TRK_FAKE_RATE_LOOSE_TIDE: 0.0171491481014
Jet pT: 700.0TRK_BIAS_QOVERP_SAGITTA_WM: -0.00104336828793
TRK_EFF_LOOSE_GLOBAL: -0.00448964536017
TRK_EFF_LOOSE_IBL: -0.00375191020709
TRK_EFF_LOOSE_PHYSMODEL: -0.00432102018233
TRK_EFF_LOOSE_PP0: -0.00579649048849
TRK_EFF_LOOSE_TIDE: -0.00964325235812
TRK_FAKE_RATE_LOOSE: 0.000537492754387
TRK_RES_D0_DEAD: -0.000411023871002
TRK_RES_Z0_DEAD: -0.00389734474735
TRK_RES_Z0_MEAS: -0.00466880961164
TRK_RES_D0_MEAS: 0.000263476840386
TRK_BIAS_D0_WM: -0.000706117932234
TRK_FAKE_RATE_LOOSE_TIDE: 0.0212588045633
Jet pT: 800.0TRK_BIAS_QOVERP_SAGITTA_WM: -0.00091896205654
TRK_EFF_LOOSE_GLOBAL: -0.0047640927668
TRK_EFF_LOOSE_IBL: -0.00449807743464
TRK_EFF_LOOSE_PHYSMODEL: -0.00496965006892
TRK_EFF_LOOSE_PP0: -0.00552586394525
TRK_EFF_LOOSE_TIDE: -0.0105196972262
TRK_FAKE_RATE_LOOSE: -4.83664240285e-05
TRK_RES_D0_DEAD: -0.0011970689947
TRK_RES_Z0_DEAD: 0.00714331081167
TRK_RES_Z0_MEAS: -0.00672293293995
TRK_RES_D0_MEAS: 0.00160818359895
TRK_BIAS_D0_WM: -0.0010156949046
TRK_FAKE_RATE_LOOSE_TIDE: 0.0193349450025
Jet pT: 900.0TRK_BIAS_QOVERP_SAGITTA_WM: -0.000460572226099
TRK_EFF_LOOSE_GLOBAL: -0.00503838101884
TRK_EFF_LOOSE_IBL: -0.00422889043964
TRK_EFF_LOOSE_PHYSMODEL: -0.00492672714585
TRK_EFF_LOOSE_PP0: -0.00527564549895
TRK_EFF_LOOSE_TIDE: -0.0114724354501
TRK_FAKE_RATE_LOOSE: 0.00053035589672
TRK_RES_D0_DEAD: 0.00160502442428
TRK_RES_Z0_DEAD: -0.000115069585009
TRK_RES_Z0_MEAS: -0.00657362177251
TRK_RES_D0_MEAS: 0.000879274249825
TRK_BIAS_D0_WM: 0.00147941381717
TRK_FAKE_RATE_LOOSE_TIDE: 0.0194537090931
Jet pT: 1000.0TRK_BIAS_QOVERP_SAGITTA_WM: 0.00237016494413
TRK_EFF_LOOSE_GLOBAL: -0.00415988133052
TRK_EFF_LOOSE_IBL: -0.00448235275149
TRK_EFF_LOOSE_PHYSMODEL: -0.00456297060673
TRK_EFF_LOOSE_PP0: -0.00564324986698
TRK_EFF_LOOSE_TIDE: -0.0108672868867
TRK_FAKE_RATE_LOOSE: -0.000564324986698
TRK_RES_D0_DEAD: 0.0021605585205
TRK_RES_Z0_DEAD: -0.00765882452774
TRK_RES_Z0_MEAS: -0.00588510343271
TRK_RES_D0_MEAS: -0.000951290691862
TRK_BIAS_D0_WM: 0.00290224278873
TRK_FAKE_RATE_LOOSE_TIDE: 0.0214478454138
Jet pT: 1100.0TRK_BIAS_QOVERP_SAGITTA_WM: 0.00031580193955
TRK_EFF_LOOSE_GLOBAL: -0.00551337552798
TRK_EFF_LOOSE_IBL: -0.00489493006303
TRK_EFF_LOOSE_PHYSMODEL: -0.00511862310354
TRK_EFF_LOOSE_PP0: -0.00581601905338
TRK_EFF_LOOSE_TIDE: -0.0105793649749
TRK_FAKE_RATE_LOOSE: -9.21088990356e-05
TRK_RES_D0_DEAD: 0.000921088990355
TRK_RES_Z0_DEAD: 0.0023156292444
TRK_RES_Z0_MEAS: -0.00465807860837
TRK_RES_D0_MEAS: 0.000526336565917
TRK_BIAS_D0_WM: -0.00242114820322
TRK_FAKE_RATE_LOOSE_TIDE: 0.0309977214877
Jet pT: 1250.0TRK_BIAS_QOVERP_SAGITTA_WM: 0.00104540779335
TRK_EFF_LOOSE_GLOBAL: -0.0048898106463
TRK_EFF_LOOSE_IBL: -0.00583404994351
TRK_EFF_LOOSE_PHYSMODEL: -0.00542937595899
TRK_EFF_LOOSE_PP0: -0.00531134604684
TRK_EFF_LOOSE_TIDE: -0.0106564149257
TRK_FAKE_RATE_LOOSE: 1.68614160218e-05
TRK_RES_D0_DEAD: -0.000168614160217
TRK_RES_Z0_DEAD: -0.0162916907729
TRK_RES_Z0_MEAS: -0.00485608781425
TRK_RES_D0_MEAS: -0.000708179472912
TRK_BIAS_D0_WM: -0.000539565312695
TRK_FAKE_RATE_LOOSE_TIDE: 0.0298668802437
Jet pT: 1400.0TRK_BIAS_QOVERP_SAGITTA_WM: -0.000888224963159
TRK_EFF_LOOSE_GLOBAL: -0.00502654581424
TRK_EFF_LOOSE_IBL: -0.00488523729737
TRK_EFF_LOOSE_PHYSMODEL: -0.00581383612249
TRK_EFF_LOOSE_PP0: -0.0059147707774
TRK_EFF_LOOSE_TIDE: -0.011587298383
TRK_FAKE_RATE_LOOSE: -0.000666168722369
TRK_RES_D0_DEAD: 6.05607929426e-05
TRK_RES_Z0_DEAD: -0.00231800915953
TRK_RES_Z0_MEAS: -0.00589458384642
TRK_RES_D0_MEAS: -0.000423925550599
TRK_BIAS_D0_WM: -0.000787290308254
TRK_FAKE_RATE_LOOSE_TIDE: 0.0141862225869
Jet pT: 1550.0TRK_BIAS_QOVERP_SAGITTA_WM: 0.000175327863104
TRK_EFF_LOOSE_GLOBAL: -0.00487411459429
TRK_EFF_LOOSE_IBL: -0.00468125394488
TRK_EFF_LOOSE_PHYSMODEL: -0.00557542604671
TRK_EFF_LOOSE_PP0: -0.00566308997826
TRK_EFF_LOOSE_TIDE: -0.0106949996493
TRK_FAKE_RATE_LOOSE: -0.000648713093485
TRK_RES_D0_DEAD: -0.000210393435725
TRK_RES_Z0_DEAD: -0.00116765624758
TRK_RES_Z0_MEAS: -0.000666245879795
TRK_RES_D0_MEAS: 0.00468125394488
TRK_BIAS_D0_WM: 0.00177081141735
TRK_FAKE_RATE_LOOSE_TIDE: 0.0163695407451
Jet pT: 1750.0TRK_BIAS_QOVERP_SAGITTA_WM: -0.000401015906964
TRK_EFF_LOOSE_GLOBAL: -0.00544713273627
TRK_EFF_LOOSE_IBL: -0.00521320679054
TRK_EFF_LOOSE_PHYSMODEL: -0.00568105868199
TRK_EFF_LOOSE_PP0: -0.00544713273627
TRK_EFF_LOOSE_TIDE: -0.0104598315733
TRK_FAKE_RATE_LOOSE: -0.000785322817805
TRK_RES_D0_DEAD: 0.000918994786793
TRK_RES_Z0_DEAD: 0.00376143601956
TRK_RES_Z0_MEAS: 0.000467851891458
TRK_RES_D0_MEAS: 0.00601523860446
TRK_BIAS_D0_WM: -0.000133671968988
TRK_FAKE_RATE_LOOSE_TIDE: 0.00630279648545
Jet pT: 2000.0TRK_BIAS_QOVERP_SAGITTA_WM: -0.000739598081271
TRK_EFF_LOOSE_GLOBAL: -0.00498700420514
TRK_EFF_LOOSE_IBL: -0.00578999640767
TRK_EFF_LOOSE_PHYSMODEL: -0.00570547091266
TRK_EFF_LOOSE_PP0: -0.00572660228641
TRK_EFF_LOOSE_TIDE: -0.00999513978404
TRK_FAKE_RATE_LOOSE: 0.00033810198001
TRK_RES_D0_DEAD: -0.00114109418253
TRK_RES_Z0_DEAD: -0.00506831474522
TRK_RES_Z0_MEAS: 8.45254950024e-05
TRK_RES_D0_MEAS: 0.0035500707901
TRK_BIAS_D0_WM: -0.000105656868753
TRK_FAKE_RATE_LOOSE_TIDE: 0.0142772880724
Jet pT: 2250.0TRK_BIAS_QOVERP_SAGITTA_WM: 0.00279760205538
TRK_EFF_LOOSE_GLOBAL: -0.00316871253212
TRK_EFF_LOOSE_IBL: -0.00573793890951
TRK_EFF_LOOSE_PHYSMODEL: -0.00593776762775
TRK_EFF_LOOSE_PP0: -0.00633742506423
TRK_EFF_LOOSE_TIDE: -0.0101912646303
TRK_FAKE_RATE_LOOSE: -0.00119897230945
TRK_RES_D0_DEAD: -0.000542392235227
TRK_RES_Z0_DEAD: 0.0128710945109
TRK_RES_Z0_MEAS: 0.00102769055096
TRK_RES_D0_MEAS: 0.0059663145875
TRK_BIAS_D0_WM: 0.000856408792464
TRK_FAKE_RATE_LOOSE_TIDE: 0.0351172760058
Jet pT: 2500.0TRK_BIAS_QOVERP_SAGITTA_WM: -0.00213706705969
TRK_EFF_LOOSE_GLOBAL: -0.00515843773029
TRK_EFF_LOOSE_IBL: -0.00504789977892
TRK_EFF_LOOSE_PHYSMODEL: -0.00637435519528
TRK_EFF_LOOSE_PP0: -0.00589535740604
TRK_EFF_LOOSE_TIDE: -0.0100957995578
TRK_FAKE_RATE_LOOSE: 0.000405305821665
TRK_RES_D0_DEAD: 0.000884303610906
TRK_RES_Z0_DEAD: 0.00231111052089
TRK_RES_Z0_MEAS: 0.00383198231393
TRK_RES_D0_MEAS: 0.00961680176861
TRK_BIAS_D0_WM: -0.00106853352985
TRK_FAKE_RATE_LOOSE_TIDE: 0.0200424302657
Jet pT: 2750.0TRK_BIAS_QOVERP_SAGITTA_WM: -0.00457766627052
TRK_EFF_LOOSE_GLOBAL: -0.0042695541177
TRK_EFF_LOOSE_IBL: -0.00638232316563
TRK_EFF_LOOSE_PHYSMODEL: -0.00642633918746
TRK_EFF_LOOSE_PP0: -0.00448963422686
TRK_EFF_LOOSE_TIDE: -0.0103437651305
TRK_FAKE_RATE_LOOSE: -0.00171662485145
TRK_RES_D0_DEAD: -0.00132048065496
TRK_RES_Z0_DEAD: 0.00899150079632
TRK_RES_Z0_MEAS: 0.00448963422686
TRK_RES_D0_MEAS: 0.00801091597341
TRK_BIAS_D0_WM: -0.00497381046701
TRK_FAKE_RATE_LOOSE_TIDE: 0.00464142492828
Jet pT: 3000.0TRK_BIAS_QOVERP_SAGITTA_WM: -1.352887061e-05
TRK_EFF_LOOSE_GLOBAL: -0.00386925699443
TRK_EFF_LOOSE_IBL: -0.00503273986688
TRK_EFF_LOOSE_PHYSMODEL: -0.00481627793712
TRK_EFF_LOOSE_PP0: -0.00570918339737
TRK_EFF_LOOSE_TIDE: -0.0087667081552
TRK_FAKE_RATE_LOOSE: -0.00148817576709
TRK_RES_D0_DEAD: 0.000365279506467
TRK_RES_Z0_DEAD: -0.0052309288571
TRK_RES_Z0_MEAS: 0.00746793657665
TRK_RES_D0_MEAS: 0.0143406028465
TRK_BIAS_D0_WM: 0.000487039341956
TRK_FAKE_RATE_LOOSE_TIDE: 0.0102286236415
